<svg width="25" height="25" viewBox="0 0 25 25" fill="none" xmlns="http://www.w3.org/2000/svg">
<g clip-path="url(#clip0_1304_5089)">
<path d="M2.08008 4.35227C2.08008 3.74524 2.32122 3.16308 2.75045 2.73385C3.17968 2.30462 3.76184 2.06348 4.36887 2.06348H8.94645C9.55348 2.06348 10.1356 2.30462 10.5649 2.73385C10.9941 3.16308 11.2352 3.74524 11.2352 4.35227V8.92985C11.2352 9.53687 10.9941 10.119 10.5649 10.5483C10.1356 10.9775 9.55348 11.2186 8.94645 11.2186H4.36887C3.76184 11.2186 3.17968 10.9775 2.75045 10.5483C2.32122 10.119 2.08008 9.53687 2.08008 8.92985V4.35227ZM4.36887 3.58934C4.16653 3.58934 3.97247 3.66972 3.8294 3.81279C3.68632 3.95587 3.60594 4.14993 3.60594 4.35227V8.92985C3.60594 9.13219 3.68632 9.32624 3.8294 9.46932C3.97247 9.6124 4.16653 9.69278 4.36887 9.69278H8.94645C9.14879 9.69278 9.34285 9.6124 9.48592 9.46932C9.629 9.32624 9.70938 9.13219 9.70938 8.92985V4.35227C9.70938 4.14993 9.629 3.95587 9.48592 3.81279C9.34285 3.66972 9.14879 3.58934 8.94645 3.58934H4.36887ZM14.287 4.35227C14.287 3.74524 14.5281 3.16308 14.9573 2.73385C15.3866 2.30462 15.9687 2.06348 16.5758 2.06348H21.1533C21.7604 2.06348 22.3425 2.30462 22.7718 2.73385C23.201 3.16308 23.4421 3.74524 23.4421 4.35227V8.92985C23.4421 9.53687 23.201 10.119 22.7718 10.5483C22.3425 10.9775 21.7604 11.2186 21.1533 11.2186H16.5758C15.9687 11.2186 15.3866 10.9775 14.9573 10.5483C14.5281 10.119 14.287 9.53687 14.287 8.92985V4.35227ZM16.5758 3.58934C16.3734 3.58934 16.1794 3.66972 16.0363 3.81279C15.8932 3.95587 15.8128 4.14993 15.8128 4.35227V8.92985C15.8128 9.13219 15.8932 9.32624 16.0363 9.46932C16.1794 9.6124 16.3734 9.69278 16.5758 9.69278H21.1533C21.3557 9.69278 21.5497 9.6124 21.6928 9.46932C21.8359 9.32624 21.9163 9.13219 21.9163 8.92985V4.35227C21.9163 4.14993 21.8359 3.95587 21.6928 3.81279C21.5497 3.66972 21.3557 3.58934 21.1533 3.58934H16.5758ZM2.08008 16.5592C2.08008 15.9521 2.32122 15.37 2.75045 14.9407C3.17968 14.5115 3.76184 14.2704 4.36887 14.2704H8.94645C9.55348 14.2704 10.1356 14.5115 10.5649 14.9407C10.9941 15.37 11.2352 15.9521 11.2352 16.5592V21.1367C11.2352 21.7438 10.9941 22.3259 10.5649 22.7552C10.1356 23.1844 9.55348 23.4255 8.94645 23.4255H4.36887C3.76184 23.4255 3.17968 23.1844 2.75045 22.7552C2.32122 22.3259 2.08008 21.7438 2.08008 21.1367V16.5592ZM4.36887 15.7962C4.16653 15.7962 3.97247 15.8766 3.8294 16.0197C3.68632 16.1628 3.60594 16.3568 3.60594 16.5592V21.1367C3.60594 21.3391 3.68632 21.5331 3.8294 21.6762C3.97247 21.8193 4.16653 21.8997 4.36887 21.8997H8.94645C9.14879 21.8997 9.34285 21.8193 9.48592 21.6762C9.629 21.5331 9.70938 21.3391 9.70938 21.1367V16.5592C9.70938 16.3568 9.629 16.1628 9.48592 16.0197C9.34285 15.8766 9.14879 15.7962 8.94645 15.7962H4.36887ZM14.287 16.5592C14.287 15.9521 14.5281 15.37 14.9573 14.9407C15.3866 14.5115 15.9687 14.2704 16.5758 14.2704H21.1533C21.7604 14.2704 22.3425 14.5115 22.7718 14.9407C23.201 15.37 23.4421 15.9521 23.4421 16.5592V21.1367C23.4421 21.7438 23.201 22.3259 22.7718 22.7552C22.3425 23.1844 21.7604 23.4255 21.1533 23.4255H16.5758C15.9687 23.4255 15.3866 23.1844 14.9573 22.7552C14.5281 22.3259 14.287 21.7438 14.287 21.1367V16.5592ZM16.5758 15.7962C16.3734 15.7962 16.1794 15.8766 16.0363 16.0197C15.8932 16.1628 15.8128 16.3568 15.8128 16.5592V21.1367C15.8128 21.3391 15.8932 21.5331 16.0363 21.6762C16.1794 21.8193 16.3734 21.8997 16.5758 21.8997H21.1533C21.3557 21.8997 21.5497 21.8193 21.6928 21.6762C21.8359 21.5331 21.9163 21.3391 21.9163 21.1367V16.5592C21.9163 16.3568 21.8359 16.1628 21.6928 16.0197C21.5497 15.8766 21.3557 15.7962 21.1533 15.7962H16.5758Z" fill="#A5AAB5"/>
<path d="M2.08008 4.35227C2.08008 3.74524 2.32122 3.16308 2.75045 2.73385C3.17968 2.30462 3.76184 2.06348 4.36887 2.06348H8.94645C9.55348 2.06348 10.1356 2.30462 10.5649 2.73385C10.9941 3.16308 11.2352 3.74524 11.2352 4.35227V8.92985C11.2352 9.53687 10.9941 10.119 10.5649 10.5483C10.1356 10.9775 9.55348 11.2186 8.94645 11.2186H4.36887C3.76184 11.2186 3.17968 10.9775 2.75045 10.5483C2.32122 10.119 2.08008 9.53687 2.08008 8.92985V4.35227ZM14.287 4.35227C14.287 3.74524 14.5281 3.16308 14.9573 2.73385C15.3866 2.30462 15.9687 2.06348 16.5758 2.06348H21.1533C21.7604 2.06348 22.3425 2.30462 22.7718 2.73385C23.201 3.16308 23.4421 3.74524 23.4421 4.35227V8.92985C23.4421 9.53687 23.201 10.119 22.7718 10.5483C22.3425 10.9775 21.7604 11.2186 21.1533 11.2186H16.5758C15.9687 11.2186 15.3866 10.9775 14.9573 10.5483C14.5281 10.119 14.287 9.53687 14.287 8.92985V4.35227ZM2.08008 16.5592C2.08008 15.9521 2.32122 15.37 2.75045 14.9407C3.17968 14.5115 3.76184 14.2704 4.36887 14.2704H8.94645C9.55348 14.2704 10.1356 14.5115 10.5649 14.9407C10.9941 15.37 11.2352 15.9521 11.2352 16.5592V21.1367C11.2352 21.7438 10.9941 22.3259 10.5649 22.7552C10.1356 23.1844 9.55348 23.4255 8.94645 23.4255H4.36887C3.76184 23.4255 3.17968 23.1844 2.75045 22.7552C2.32122 22.3259 2.08008 21.7438 2.08008 21.1367V16.5592ZM14.287 16.5592C14.287 15.9521 14.5281 15.37 14.9573 14.9407C15.3866 14.5115 15.9687 14.2704 16.5758 14.2704H21.1533C21.7604 14.2704 22.3425 14.5115 22.7718 14.9407C23.201 15.37 23.4421 15.9521 23.4421 16.5592V21.1367C23.4421 21.7438 23.201 22.3259 22.7718 22.7552C22.3425 23.1844 21.7604 23.4255 21.1533 23.4255H16.5758C15.9687 23.4255 15.3866 23.1844 14.9573 22.7552C14.5281 22.3259 14.287 21.7438 14.287 21.1367V16.5592Z" fill="#8A8A8A"/>
</g>
<defs>
<clipPath id="clip0_1304_5089">
<rect width="24.4138" height="24.4138" fill="white" transform="translate(0.554688 0.537109)"/>
</clipPath>
</defs>
</svg>
